counter.vcd
$date
     Oct 24, 2014       16:06:36
$end

$version
              SystemC 2.3.0-ASI --- Aug  2 2013 13:45:22
$end

$timescale
     1 ps
$end

$scope module SystemC $end
$var wire    1  aaa  clock       $end
$var wire    1  aab  reset       $end
$var wire    1  aac  enable       $end
$var wire    4  aad  count [3:0]  $end
$upscope $end
$enddefinitions  $end

$comment
All initial values are dumped below at time 0 sec = 0 timescale units.
$end

$dumpvars
1aaa
0aab
0aac
b0 aad
$end

#500
0aaa

#1000
1aaa

#1500
0aaa

#2000
1aaa

#2500
0aaa

#3000
1aaa

#3500
0aaa

#4000
1aaa
1aab

#4500
0aaa

#5000
1aaa

#5500
0aaa

#6000
1aaa

#6500
0aaa

#7000
1aaa

#7500
0aaa

#8000
1aaa

#8500
0aaa

#9000
1aaa

#9500
0aaa

#10000
1aaa

#10500
0aaa

#11000
1aaa

#11500
0aaa

#12000
1aaa
0aab

#12500
0aaa

#13000
1aaa

#13500
0aaa

#14000
1aaa

#14500
0aaa

#15000
1aaa

#15500
0aaa

#16000
1aaa
1aac
b1 aad

#16500
0aaa

#17000
1aaa
b10 aad

#17500
0aaa

#18000
1aaa
b11 aad

#18500
0aaa

#19000
1aaa
b100 aad

#19500
0aaa

#20000
1aaa
b101 aad

#20500
0aaa

#21000
1aaa
b110 aad

#21500
0aaa

#22000
1aaa
b111 aad

#22500
0aaa

#23000
1aaa
b1000 aad

#23500
0aaa

#24000
1aaa
b1001 aad

#24500
0aaa

#25000
1aaa
b1010 aad

#25500
0aaa

#26000
1aaa
b1011 aad

#26500
0aaa

#27000
1aaa
b1100 aad

#27500
0aaa

#28000
1aaa
b1101 aad

#28500
0aaa

#29000
1aaa
b1110 aad

#29500
0aaa

#30000
1aaa
b1111 aad

#30500
0aaa

#31000
1aaa
b0 aad

#31500
0aaa

#32000
1aaa
b1 aad

#32500
0aaa

#33000
1aaa
b10 aad

#33500
0aaa

#34000
1aaa
b11 aad

#34500
0aaa

#35000
1aaa
b100 aad

#35500
0aaa

#36000
1aaa
b101 aad

#36500
0aaa

#37000
1aaa
b110 aad

#37500
0aaa

#38000
1aaa
b111 aad

#38500
0aaa

#39000
1aaa
b1000 aad

#39500
0aaa

#40000
1aaa
0aac

